Name,Sex,Equipment,Event,Division,BodyweightKg,WeightClassKg,Squat1Kg,Squat2Kg,Squat3Kg,Best3SquatKg,Bench1Kg,Bench2Kg,Bench3Kg,Best3BenchKg,Deadlift1Kg,Deadlift2Kg,Deadlift3Kg,Best3DeadliftKg,TotalKg,Place,AgeRange,State
Antonietta Moch,F,Raw,SBD,F-C-N,49.6,52,55,60,65,65,40,42.5,-47.5,42.5,80,85,90,90,197.5,1,23.5-38.5,EM
Vanessa Butler #1,F,Raw,SBD,F-C-M1,56.1,57,-80,80,-85,80,42.5,45,47.5,47.5,90,97.5,100,100,227.5,1,39.5-48.5,EM
Hayley Horne,F,Raw,SBD,F-C-N,62.4,63,70,80,-87.5,80,47.5,50,-52.5,50,100,105,110,110,240,1,23.5-38.5,EM
Carissa Deck,F,Raw,SBD,F-C-N,64.4,72,77.5,85,95,95,45,-50,-50,45,92.5,105,112.5,112.5,252.5,G,23.5-38.5,
Jo Montagu,F,Raw,SBD,F-C-M1,61.5,63,-80,85,-90,85,47.5,-50,-50,47.5,110,117.5,-120,117.5,250,1,39.5-48.5,EM
Lottie Hall #1,F,Raw,SBD,F-C-N,68.6,72,85,90,-95,90,40,45,-50,45,105,110,-115,110,245,2,23.5-38.5,EM
Carly Spencer,F,Raw,SBD,F-C-N,71.7,72,95,-102.5,-102.5,95,47.5,-50,-50,47.5,120,130,-137.5,130,272.5,1,23.5-38.5,EM
Becky Peacock,F,Raw,SBD,F-C-U23,65.8,72,-75,82.5,85,85,40,45,-50,45,90,100,105,105,235,1,14-22.5,EM
Paula Gentle,F,Raw,SBD,F-C-M1,65.3,72,82.5,87.5,-92.5,87.5,-47.5,47.5,50,50,112.5,117.5,-120,117.5,255,1,39.5-48.5,EM
Kristin Wilson #3,F,Raw,SBD,F-C-M1,78.5,84,90,-100,-100,90,55,60,-62.5,60,120,130,135,135,285,1,39.5-48.5,EM
Rebecca Charles,F,Raw,SBD,F-C-N,96.1,84+,50,57.5,70,70,35,40,-45,40,10,110,-125,110,220,1,23.5-38.5,EM
Samuel Walden,M,Raw,SBD,M-C-N,65.6,66,-135,135,142.5,142.5,-90,90,-95,90,180,-190,-190,180,412.5,1,23.5-38.5,EM
Adam Goulder,M,Raw,SBD,M-C-N,72.8,74,-137.5,137.5,-145,137.5,-95,95,-102.5,95,160,-170,-170,160,392.5,1,23.5-38.5,EM
Stephen Snowling,M,Raw,SBD,M-C-N,72.3,74,90,115,125,125,60,85,95,95,120,155,165,165,385,2,23.5-38.5,EM
Ben Sparks,M,Raw,SBD,M-C-U18,73.4,74,117.5,125,130,130,67.5,-70,-70,67.5,177.5,190,202.5,202.5,400,1,14-17.5,EM
Benjamin Cattermole,M,Raw,SBD,M-C-U23,72.2,74,155,165,170,170,115,120,-122.5,120,190,200,207.5,207.5,497.5,1,14-22.5,EM
David Braithwaite,M,Raw,SBD,M-C-M1,72.8,74,130,142.5,150,150,95,105,-110,105,170,180,185,185,440,1,39.5-48.5,EM
Allen Ottolangui,M,Raw,SBD,M-C-M2,73.7,74,165,-180,-180,165,97.5,105,-110,105,185,195,200,200,470,1,49.5-58.5,EM
Markhan Mann,M,Raw,SBD,M-C-M3,72,74,80,90,100,100,60,67.5,75,75,100,110,-120,110,285,1,59.5-68.5,EM
Nathan Sugden,M,Raw,SBD,M-C-N,78.5,83,170,175,185,185,110,120,-135,120,210,225,235,235,540,2,23.5-38.5,EM
Paul Randall,M,Raw,SBD,M-C-N,78.5,83,-150,150,-155,150,100,115,122.5,122.5,190,215,225,225,497.5,4,23.5-38.5,EM
Ricardo Lucas,M,Raw,SBD,M-C-N,78.65,83,165,180,190,190,100,115,-120,115,165,180,195,195,500,3,23.5-38.5,EM
Sebastian Viteri,M,Raw,SBD,M-C-N,81.3,83,175,182.5,-190,182.5,125,135,142.5,142.5,220,237.5,-252.5,237.5,562.5,1,23.5-38.5,EM
Michael Sturgeon,M,Raw,SBD,M-C-N,80.6,83,150,160,170,170,90,-100,100,100,150,170,190,190,460,5,23.5-38.5,EM
Reece D'Alanno,M,Raw,SBD,M-C-U23,77.4,83,175,185,195,195,125,132.5,135,135,225,235,252.5,252.5,582.5,1,14-22.5,EM
Brandon Hawksley,M,Raw,SBD,M-C-U23,80.8,83,180,190,200,200,90,95,100,100,195,205,220,220,520,2,14-22.5,EM
Thomas Wilson,M,Raw,SBD,M-C-M1,82.5,83,160,170,180,180,115,122.5,127.5,127.5,210,225,230,230,537.5,1,39.5-48.5,EM
Mike Round,M,Raw,SBD,M-C-M2,82.3,83,170,175,,175,130,135,,135,190,200,205,205,515,1,49.5-58.5,EM
Neil Butler,M,Raw,SBD,M-C-M2,81.6,83,135,140,142.5,142.5,87.5,92.5,95,95,165,175,180,180,417.5,3,49.5-58.5,EM
Doug D'Gama,M,Raw,SBD,M-C-M2,82.3,83,140,150,-160,150,110,120,127.5,127.5,205,225,-240,225,502.5,2,49.5-58.5,EM
Oliver Butler,M,Raw,SBD,M-C-N,88.4,93,160,175,185,185,110,115,-122.5,115,180,195,205,205,505,3,23.5-38.5,EM
Stephen Larsen,M,Raw,SBD,M-C-N,86.3,93,165,172.5,180,180,97.5,105,-112.5,105,190,200,207.5,207.5,492.5,4,23.5-38.5,EM
Jared Holmes,M,Raw,SBD,M-C-N,91.1,93,-170,170,180,180,120,130,140,140,200,220,-225,220,540,2,23.5-38.5,EM
Leon Holmes,M,Raw,SBD,M-C-N,89.8,93,170,200,210,210,-120,130,140,140,200,230,247.5,247.5,597.5,1,23.5-38.5,EM
Alexandru Apostol,M,Raw,SBD,M-C-N,82.5,83,120,130,140,140,70,80,90,90,120,135,150,150,380,G,23.5-38.5,
Kyle Renwick,M,Raw,SBD,M-C-U23,91.7,93,180,192.5,200,200,110,115,,115,220,235,-245,235,550,1,14-22.5,EM
Tony Wrightman,M,Raw,SBD,M-C-M3,90,93,140,145,,145,90,-95,-95,90,175,182.5,,182.5,417.5,1,59.5-68.5,EM
Kieran Stubbings,M,Raw,SBD,M-C-U18,97.1,105,175,180,187.5,187.5,112.5,117.5,-122.5,117.5,187.5,200,202.5,202.5,507.5,1,14-17.5,EM
Orrin Hipkin,M,Raw,SBD,M-C-N,100.3,105,170,180,190,190,120,-130,130,130,215,230,-242.5,230,550,1,23.5-38.5,EM
Will Harding,M,Raw,SBD,M-C-U23,100.1,105,180,192.5,200,200,130,142.5,-147.5,142.5,240,262.5,-267.5,262.5,605,1,14-22.5,EM
Matt Saunders,M,Raw,SBD,M-C-M1,102.7,105,180,200,,200,145,160,,160,240,260,,260,620,1,39.5-48.5,EM
Ben Leyland,M,Raw,SBD,M-C-U23,107.2,120,195,207.5,-217.5,207.5,130,-132.5,-132.5,130,250,277.5,290,290,627.5,2,14-22.5,EM
Sam Harvey #1,M,Raw,SBD,M-C-U23,119.2,120,200,220,230,230,137.5,147.5,150,150,230,250,-260,250,630,1,14-22.5,EM
Ian Finch,M,Raw,SBD,M-C-M2,105.5,120,165,170,175,175,105,110,115,115,195,210,,210,500,1,49.5-58.5,EM
