Division,WeightClassKg,Place,Name,Team,BodyweightKg,Best3SquatKg,Best3BenchKg,Best3DeadliftKg,TotalKg,Equipment,Event,Sex
Boys,51.71,1,Chandler Bush,Elysian Fields,51.07,145.15,70.31,161.03,376.48,Single-ply,SBD,M
Boys,51.71,2,Carson Johnson,Paris,51.53,113.4,68.04,127.01,308.44,Single-ply,SBD,M
Boys,51.71,3,Vandon Lassiter,Paris North Lamar,50.35,102.06,61.23,120.2,283.5,Single-ply,SBD,M
Boys,51.71,DQ,Nate Brower,Maud,49.26,99.79,,,,Single-ply,SBD,M
Boys,55.79,1,BJ Stidham,Gladewater Sabine,53.71,192.78,95.25,190.51,478.54,Single-ply,SBD,M
Boys,55.79,2,Xavier Edwards,Texarkana Liberty-Eylau,53.89,163.29,95.25,142.88,401.43,Single-ply,SBD,M
Boys,55.79,3,Zachary Doyle,Royse City,53.98,158.76,79.38,147.42,385.55,Single-ply,SBD,M
Boys,55.79,4,Jaden Brown #1,Paris North Lamar,53.61,142.88,72.57,165.56,381.02,Single-ply,SBD,M
Boys,55.79,5,Kadin Daniels,Maud,55.25,117.93,68.04,142.88,328.85,Single-ply,SBD,M
Boys,55.79,6,Luke Elrod,Paris North Lamar,54.79,111.13,61.23,133.81,306.17,Single-ply,SBD,M
Boys,55.79,7,Lane Davis,Mount Pleasant Chapel Hill,55.7,81.65,52.16,108.86,242.67,Single-ply,SBD,M
Boys,59.87,1,Keiotti Bray,Paris,58.15,195.04,120.2,188.24,503.49,Single-ply,SBD,M
Boys,59.87,2,Logan Combs,Royse City,58.51,167.83,97.52,170.1,435.45,Single-ply,SBD,M
Boys,59.87,3,Blayce Lassiter,Paris North Lamar,59.15,181.44,72.57,158.76,412.77,Single-ply,SBD,M
Boys,59.87,4,Deuntre Adamson,Paris,56.06,142.88,90.72,165.56,399.16,Single-ply,SBD,M
Boys,59.87,5,David Nava,Mount Pleasant,59.24,131.54,68.04,136.08,335.66,Single-ply,SBD,M
Boys,59.87,6,Finess McCuin,Paris,56.43,127.01,58.97,142.88,328.85,Single-ply,SBD,M
Boys,59.87,7,Brian Dennis,Royse City,58.69,102.06,70.31,145.15,317.51,Single-ply,SBD,M
Boys,59.87,8,Didier Serrano,Mount Pleasant,59.69,83.91,56.7,117.93,258.55,Single-ply,SBD,M
Boys,59.87,9,Christopher Cochran,New Boston,59.06,79.38,45.36,106.59,231.33,Single-ply,SBD,M
Boys,67.13,1,Alec Morris,Gladewater Sabine,66.95,170.1,106.59,154.22,430.91,Single-ply,SBD,M
Boys,67.13,2,Caleb Ashley,Paris Chisum,64.05,145.15,108.86,170.1,424.11,Single-ply,SBD,M
Boys,67.13,3,Kollin Moss,Royse City,64.86,167.83,88.45,142.88,399.16,Single-ply,SBD,M
Boys,67.13,4,Jacoby Brown,Royse City,66.77,158.76,81.65,154.22,394.63,Single-ply,SBD,M
Boys,67.13,5,Antonio Landaverde,Mount Pleasant,65.59,142.88,88.45,156.49,387.82,Single-ply,SBD,M
Boys,67.13,6,Tony Mason,Elysian Fields,66.68,149.69,77.11,161.03,387.82,Single-ply,SBD,M
Boys,67.13,7,Zane Phillips,Mount Pleasant,65.32,151.95,74.84,158.76,385.55,Single-ply,SBD,M
Boys,67.13,8,Brian Vaca,Longview Spring Hill,62.6,142.88,90.72,149.69,383.29,Single-ply,SBD,M
Boys,67.13,9,Zach Henry,Longview Spring Hill,61.69,142.88,77.11,151.95,371.95,Single-ply,SBD,M
Boys,67.13,10,Ethan Mayes,Mount Pleasant Chapel Hill,65.59,147.42,68.04,147.42,362.87,Single-ply,SBD,M
Boys,67.13,11,Noah Grubbs,Elysian Fields,63.14,149.69,61.23,147.42,358.34,Single-ply,SBD,M
Boys,67.13,12,DeMarcus Johnson,Omaha Pewitt,64.23,136.08,79.38,142.88,358.34,Single-ply,SBD,M
Boys,67.13,13,Fernando Martinez #6,Mount Pleasant,64.77,124.74,72.57,129.27,326.59,Single-ply,SBD,M
Boys,67.13,14,Alexander Rodriguez,Texarkana Liberty-Eylau,63.87,124.74,83.91,113.4,322.05,Single-ply,SBD,M
Boys,67.13,15,Alex Vaseleck,Mount Pleasant,63.78,129.27,61.23,129.27,319.78,Single-ply,SBD,M
Boys,67.13,16,Austin Spear,Paris North Lamar,65.05,120.2,63.5,129.27,312.98,Single-ply,SBD,M
Boys,67.13,17,Morgan Bacorn,Paris Chisum,63.96,102.06,72.57,113.4,288.03,Single-ply,SBD,M
Boys,67.13,18,Nicholas Ramirez,Mount Pleasant,66.68,86.18,58.97,129.27,274.42,Single-ply,SBD,M
Boys,67.13,19,Jace Bramlett,Maud,61.69,88.45,49.9,102.06,240.4,Single-ply,SBD,M
Boys,67.13,DQ,Kasey Villareal,Lindale,66.59,140.61,,,,Single-ply,SBD,M
Boys,74.84,1,Jason Jackson #5,De Kalb,67.59,208.65,120.2,197.31,526.17,Single-ply,SBD,M
Boys,74.84,2,Billy Long,Ore City,74.03,199.58,120.2,199.58,519.36,Single-ply,SBD,M
Boys,74.84,3,Dustin Newman,Mount Pleasant Chapel Hill,74.12,183.7,86.18,197.31,467.2,Single-ply,SBD,M
Boys,74.84,4,Drew Bush,Paris,74.3,170.1,108.86,188.24,467.2,Single-ply,SBD,M
Boys,74.84,5,Bryce Evans,Paris North Lamar,74.39,183.7,102.06,165.56,451.32,Single-ply,SBD,M
Boys,74.84,6,Garrett Wycough,Canton,74.57,170.1,86.18,158.76,415.04,Single-ply,SBD,M
Boys,74.84,7,Hunter Williams,Canton,73.21,167.83,77.11,158.76,403.7,Single-ply,SBD,M
Boys,74.84,8,Eathen Brooks,Texarkana Liberty-Eylau,69.85,149.69,77.11,172.37,399.16,Single-ply,SBD,M
Boys,74.84,9,Paul Lean,De Kalb,72.03,136.08,86.18,142.88,365.14,Single-ply,SBD,M
Boys,74.84,10,Marvin Norris,Paris Chisum,67.86,127.01,70.31,127.01,324.32,Single-ply,SBD,M
Boys,74.84,11,Tyler Howell,Lindale,68.04,113.4,68.04,136.08,317.51,Single-ply,SBD,M
Boys,74.84,DQ,Dalton Daniel,New Boston,71.94,158.76,,,,Single-ply,SBD,M
Boys,74.84,DQ,Devin Walters,Mount Pleasant Chapel Hill,72.57,149.69,,,,Single-ply,SBD,M
Boys,74.84,DQ,Zeb Garrett,Paris North Lamar,70.76,156.49,,,,Single-ply,SBD,M
Boys,82.1,1,Thatcher Davis,Royse City,81.74,206.38,113.4,224.53,544.31,Single-ply,SBD,M
Boys,82.1,2,Griffin Merillat,Royse City,81.01,210.92,106.59,199.58,517.1,Single-ply,SBD,M
Boys,82.1,3,Michael Marrs,Longview Spring Hill,81.65,181.44,124.74,208.65,514.83,Single-ply,SBD,M
Boys,82.1,4,Alex Marston,Malakoff Cross Roads,81.37,192.78,97.52,199.58,489.88,Single-ply,SBD,M
Boys,82.1,5,Daniel Bautista,Mount Pleasant,81.83,195.04,97.52,197.31,489.88,Single-ply,SBD,M
Boys,82.1,6,Kei'Untray Hawkins,Omaha Pewitt,81.65,183.7,104.33,195.04,483.08,Single-ply,SBD,M
Boys,82.1,7,Matthew Shankles,Longview Spring Hill,79.83,167.83,104.33,181.44,453.59,Single-ply,SBD,M
Boys,82.1,8,Kolton Primeaux,Lindale,80.06,174.63,90.72,174.63,439.98,Single-ply,SBD,M
Boys,82.1,9,Brody Barnhill,Longview Spring Hill,76.66,163.29,83.91,158.76,405.97,Single-ply,SBD,M
Boys,82.1,10,Tucker Williams,Lindale,80.29,151.95,81.65,165.56,399.16,Single-ply,SBD,M
Boys,82.1,11,David Walters,Mount Pleasant Chapel Hill,78.83,147.42,72.57,174.63,394.63,Single-ply,SBD,M
Boys,82.1,12,Jacob Isbell,Mount Pleasant Chapel Hill,79.38,127.01,74.84,170.1,371.95,Single-ply,SBD,M
Boys,82.1,13,Preston Roberts,Canton,82.1,163.29,70.31,127.01,360.61,Single-ply,SBD,M
Boys,82.1,14,Angel Perez,Mount Pleasant,80.92,140.61,68.04,140.61,349.27,Single-ply,SBD,M
Boys,82.1,DQ,Daniel Jimenez,Ore City,77.93,,,,,Single-ply,SBD,M
Boys,82.1,DQ,Laton Reed,Texarkana Liberty-Eylau,75.84,181.44,,,,Single-ply,SBD,M
Boys,89.81,1,Richard Matkin,Longview Spring Hill,88.09,204.12,127.01,213.19,544.31,Single-ply,SBD,M
Boys,89.81,2,Aidan Murrey,Royse City,86.27,215.46,122.47,204.12,542.04,Single-ply,SBD,M
Boys,89.81,3,Dylan Perkins,New Boston,86.36,197.31,127.01,215.46,539.77,Single-ply,SBD,M
Boys,89.81,4,Andrew Murphy #3,Paris,87.36,208.65,113.4,204.12,526.17,Single-ply,SBD,M
Boys,89.81,5,Jonathan Woods #1,Mount Pleasant,87.91,199.58,120.2,195.04,514.83,Single-ply,SBD,M
Boys,89.81,6,Arie Love,De Kalb,84.28,204.12,102.06,199.58,505.76,Single-ply,SBD,M
Boys,89.81,7,Adrian Vital,Royse City,83.01,185.97,115.67,185.97,487.61,Single-ply,SBD,M
Boys,89.81,8,Lakken Stuart,Texarkana Liberty-Eylau,87.63,163.29,127.01,192.78,483.08,Single-ply,SBD,M
Boys,89.81,9,Hester Carson,Gladewater Sabine,87.36,174.63,117.93,183.7,476.27,Single-ply,SBD,M
Boys,89.81,10,Seth Brower,Maud,86.91,170.1,99.79,181.44,451.32,Single-ply,SBD,M
Boys,89.81,11,Trent Tennon,Paris,87.54,151.95,92.99,183.7,428.64,Single-ply,SBD,M
Boys,89.81,12,Javantae Black,Paris,84.1,149.69,97.52,165.56,412.77,Single-ply,SBD,M
Boys,89.81,13,Astin Ledbetter,Mount Pleasant,88,145.15,83.91,181.44,410.5,Single-ply,SBD,M
Boys,89.81,14,Hunter McDonald,Malakoff Cross Roads,85.18,136.08,77.11,170.1,383.29,Single-ply,SBD,M
Boys,89.81,15,Remington Brown,Paris North Lamar,85.82,115.67,79.38,136.08,331.12,Single-ply,SBD,M
Boys,89.81,16,Wilson Taylor,Gladewater Sabine,88.9,108.86,77.11,108.86,294.84,Single-ply,SBD,M
Boys,89.81,DQ,Blaine Hendry,Malakoff Cross Roads,82.37,,,,,Single-ply,SBD,M
Boys,89.81,DQ,Omarr Webber,Lindale,88.54,163.29,,,,Single-ply,SBD,M
Boys,99.79,1,Garrett Smith,Royse City,95.98,235.87,131.54,215.46,582.87,Single-ply,SBD,M
Boys,99.79,2,Aaron Hill,New Boston,97.16,195.04,104.33,226.8,526.17,Single-ply,SBD,M
Boys,99.79,3,Carter Renfro,Paris North Lamar,94.17,188.24,111.13,197.31,496.68,Single-ply,SBD,M
Boys,99.79,4,Londell Howard,De Kalb,91.99,183.7,108.86,201.85,494.42,Single-ply,SBD,M
Boys,99.79,5,Kaden Mattingly,Malakoff Cross Roads,95.89,185.97,115.67,192.78,494.42,Single-ply,SBD,M
Boys,99.79,6,Trustin Jones,Texarkana Liberty-Eylau,98.88,179.17,99.79,192.78,471.74,Single-ply,SBD,M
Boys,99.79,7,Preston Turner,Malakoff Cross Roads,97.89,167.83,106.59,172.37,446.79,Single-ply,SBD,M
Boys,99.79,8,Gunner Boswell,Canton,92.71,181.44,90.72,158.76,430.91,Single-ply,SBD,M
Boys,99.79,9,Giovanni Campos,Lindale,91.99,172.37,95.25,158.76,426.38,Single-ply,SBD,M
Boys,99.79,10,Elias Elizondo,Mount Pleasant,89.99,158.76,81.65,181.44,421.84,Single-ply,SBD,M
Boys,99.79,11,Nathan Bush,Texarkana Liberty-Eylau,95.8,163.29,81.65,170.1,415.04,Single-ply,SBD,M
Boys,99.79,12,Reid Pickard,Mount Pleasant,93.35,142.88,90.72,124.74,358.34,Single-ply,SBD,M
Boys,99.79,DQ,Maverick Brown,Paris North Lamar,90.54,136.08,,,,Single-ply,SBD,M
Boys,109.77,1,George Lias,Mount Pleasant,108.5,272.16,136.08,233.6,641.83,Single-ply,SBD,M
Boys,109.77,2,Quin Dangerfield,Paris,109.23,231.33,149.69,235.87,616.89,Single-ply,SBD,M
Boys,109.77,3,Joel Guerrero,Mount Pleasant,105.78,249.48,136.08,206.38,591.94,Single-ply,SBD,M
Boys,109.77,4,Ian Lail,Mount Pleasant Chapel Hill,109.68,226.8,120.2,210.92,557.92,Single-ply,SBD,M
Boys,109.77,5,Matthew Guevara,Ore City,102.87,210.92,142.88,197.31,551.11,Single-ply,SBD,M
Boys,109.77,6,Jagger Ochoa,Lindale,108.23,226.8,104.33,213.19,544.31,Single-ply,SBD,M
Boys,109.77,7,Chance Hicks,Maud,103.78,185.97,136.08,204.12,526.17,Single-ply,SBD,M
Boys,109.77,8,Di'Mondre Harper,Omaha Pewitt,104.14,195.04,108.86,199.58,503.49,Single-ply,SBD,M
Boys,109.77,9,Zach Baggett #1,Lindale,104.96,192.78,106.59,185.97,485.34,Single-ply,SBD,M
Boys,109.77,10,Satchel Swain,Paris,101.79,185.97,113.4,183.7,483.08,Single-ply,SBD,M
Boys,109.77,11,Brock Foster,Maud,107.41,158.76,129.27,195.04,483.08,Single-ply,SBD,M
Boys,109.77,12,Jacob Kimbrough,Longview Spring Hill,106.59,199.58,97.52,183.7,480.81,Single-ply,SBD,M
Boys,109.77,13,Brandon Krenek,Longview Spring Hill,103.06,192.78,113.4,172.37,478.54,Single-ply,SBD,M
Boys,109.77,14,Aiden Rose,Royse City,100.52,174.63,81.65,185.97,442.25,Single-ply,SBD,M
Boys,109.77,15,Chase Dillard,Paris Chisum,105.69,145.15,86.18,181.44,412.77,Single-ply,SBD,M
Boys,109.77,16,Wesley Estes,Paris Chisum,102.78,140.61,92.99,151.95,385.55,Single-ply,SBD,M
Boys,109.77,17,Virgle Scales,Paris Chisum,103.78,142.88,92.99,129.27,365.14,Single-ply,SBD,M
Boys,109.77,18,Rane McCollum,Omaha Pewitt,104.14,147.42,77.11,136.08,360.61,Single-ply,SBD,M
Boys,109.77,19,Dawson Parker,New Boston,108.05,113.4,,,113.4,Single-ply,S,M
Boys,109.77,DQ,Braden Tittle,Royse City,103.15,,,,,Single-ply,SBD,M
Boys,109.77,DQ,Devin Preston,Malakoff Cross Roads,105.96,163.29,,,,Single-ply,SBD,M
Boys,124.74,1,Chris Chamness,Mount Vernon,119.75,317.51,163.29,283.5,764.3,Single-ply,SBD,M
Boys,124.74,2,Jaedon Murphy,Paris,120.38,192.78,127.01,208.65,528.44,Single-ply,SBD,M
Boys,124.74,3,Jett Morris,Omaha Pewitt,119.57,208.65,108.86,204.12,521.63,Single-ply,SBD,M
Boys,124.74,4,Ivan Elizondo,Mount Pleasant,113.49,206.38,111.13,201.85,519.36,Single-ply,SBD,M
Boys,124.74,5,Moses Medrano,Lindale,112.94,204.12,104.33,197.31,505.76,Single-ply,SBD,M
Boys,124.74,6,Christopher McDaniel,De Kalb,123.38,181.44,111.13,213.19,505.76,Single-ply,SBD,M
Boys,124.74,7,Colby Bowles,Longview Spring Hill,121.47,190.51,99.79,201.85,492.15,Single-ply,SBD,M
Boys,124.74,8,Devin Moten,Paris,119.57,197.31,97.52,192.78,487.61,Single-ply,SBD,M
Boys,124.74,9,Devin Burton,Paris North Lamar,122.92,170.1,108.86,192.78,471.74,Single-ply,SBD,M
Boys,124.74,10,Trevor Marquez,Malakoff Cross Roads,112.31,183.7,97.52,174.63,455.86,Single-ply,SBD,M
Boys,124.74,11,Blake Mays,Mount Pleasant,109.86,156.49,108.86,158.76,424.11,Single-ply,SBD,M
Boys,124.74,DQ,Turner Hilburn,Royse City,120.2,,,,,Single-ply,SBD,M
Boys,124.74,DQ,Braylon Bryant,Paris Chisum,118.12,,,,,Single-ply,SBD,M
Boys,124.74+,1,Carson Manasse,Longview Spring Hill,129.09,233.6,149.69,247.21,630.49,Single-ply,SBD,M
Boys,124.74+,2,David Williams #9,Omaha Pewitt,151.95,226.8,127.01,226.8,580.6,Single-ply,SBD,M
Boys,124.74+,3,Demarcus Hill,Omaha Pewitt,163.29,201.85,115.67,226.8,544.31,Single-ply,SBD,M
Boys,124.74+,4,Cody Rutherford,New Boston,133.81,213.19,104.33,208.65,526.17,Single-ply,SBD,M
Boys,124.74+,5,Luke Sandifer,Lindale,130.91,208.65,113.4,197.31,519.36,Single-ply,SBD,M
Boys,124.74+,6,Cody Saffel,Canton,131.63,204.12,97.52,185.97,487.61,Single-ply,SBD,M
Boys,124.74+,7,Tyler Welborn,Mount Pleasant,149.05,195.04,95.25,176.9,467.2,Single-ply,SBD,M
Boys,124.74+,8,Logan Hawkins,Paris Chisum,125.74,158.76,113.4,181.44,453.59,Single-ply,SBD,M
Boys,124.74+,9,Jesse Bullard,Ore City,128.64,161.03,120.2,156.49,437.72,Single-ply,SBD,M
Boys,124.74+,DQ,Luke Hohenburger,Paris North Lamar,126.64,,,,,Single-ply,SBD,M
Boys,124.74+,DQ,Rhylie Miner,Paris North Lamar,136.53,,,,,Single-ply,SBD,M
Boys,124.74+,DQ,Garrett Flesberg,Paris North Lamar,136.44,154.22,102.06,,,Single-ply,SBD,M
