Division,WeightClassKg,Place,Name,Team,BodyweightKg,Best3SquatKg,Best3BenchKg,Best3DeadliftKg,TotalKg,Equipment,Event,Sex,BirthDate
Boys,51.71,1,Alex Le,Palacios,50.48,133.81,88.45,129.27,351.53,Single-ply,SBD,M,
Boys,51.71,2,Imanol Mendez,Louise,50.3,102.06,63.5,127.01,292.57,Single-ply,SBD,M,
Boys,51.71,3,Curtis Ledwig,Ganado,49.76,90.72,43.09,99.79,233.6,Single-ply,SBD,M,
Boys,51.71,4,Cam Graves,Palacios,45.4,70.31,56.7,90.72,217.72,Single-ply,SBD,M,
Boys,51.71,5,Jacob Miller,Louise,50.89,56.7,49.9,90.72,197.31,Single-ply,SBD,M,
Boys,51.71,DQ,Trevor Lutringer,Louise,50.85,,,,,Single-ply,SBD,M,
Boys,55.79,1,Jordan Garcia #7,El Maton Tidehaven,55.29,127.01,65.77,145.15,337.93,Single-ply,SBD,M,
Boys,59.87,1,Geovanni Villeda,Edna,58.6,154.22,81.65,149.69,385.55,Single-ply,SBD,M,
Boys,59.87,2,Beau Galetti,Ganado,58.47,104.33,77.11,136.08,317.51,Single-ply,SBD,M,
Boys,59.87,DQ,Tyrin Brito,Ganado,59.87,,,,,Single-ply,SBD,M,
Boys,67.13,1,Miguel Sanchez,Palacios,65.68,219.99,124.74,201.85,546.58,Single-ply,SBD,M,
Boys,67.13,2,Bryce Duke,Palacios,67,167.83,95.25,181.44,444.52,Single-ply,SBD,M,
Boys,67.13,3,Josiah Sterling,Ganado,65.54,142.88,92.99,145.15,381.02,Single-ply,SBD,M,
Boys,67.13,DQ,Richard Kight,Louise,61.37,,,,,Single-ply,SBD,M,
Boys,67.13,DQ,Benjamin Blanco,Louise,63.14,108.86,63.5,,,Single-ply,SBD,M,
Boys,67.13,DQ,Steve Kelly,Ganado,67.13,,,,,Single-ply,SBD,M,
Boys,67.13,DQ,Kadin Nunez,Bay City,67.13,,,,,Single-ply,SBD,M,
Boys,74.84,1,John Sample,Edna,70.9,183.7,108.86,172.37,464.93,Single-ply,SBD,M,
Boys,74.84,2,Brandon Almeda,Ganado,73.3,142.88,90.72,122.47,356.07,Single-ply,SBD,M,
Boys,74.84,3,Alan Rosas,Louise,69.22,108.86,68.04,136.08,312.98,Single-ply,SBD,M,
Boys,74.84,DQ,Moises Amaro,Palacios,74.07,,192.78,,,Single-ply,SBD,M,
Boys,74.84,DQ,Alexis Martinez #14,Ganado,73.26,172.37,90.72,,,Single-ply,SBD,M,
Boys,82.1,1,Fidel Chavez,Palacios,80.83,190.51,124.74,217.72,532.97,Single-ply,SBD,M,
Boys,82.1,2,Stefan Plotini,Edna,80.92,183.7,102.06,183.7,469.47,Single-ply,SBD,M,
Boys,82.1,DQ,Jacob Rosalez,Edna,80.1,,,,,Single-ply,SBD,M,
Boys,82.1,DQ,Sieth Owen,Bay City,82.1,,,,,Single-ply,SBD,M,
Boys,89.81,1,Xavier Perez,Palacios,88.68,231.33,124.74,222.26,578.33,Single-ply,SBD,M,
Boys,89.81,2,Ruben Alameda,Bay City,87.18,174.63,111.13,197.31,483.08,Single-ply,SBD,M,
Boys,89.81,3,Juan Huerta,Louise,86.45,172.37,92.99,181.44,446.79,Single-ply,SBD,M,
Boys,89.81,4,Hersamo Guerrero,Palacios,83.51,151.95,106.59,163.29,421.84,Single-ply,SBD,M,
Boys,89.81,5,Gage Gaona,Wharton,87.54,129.27,102.06,131.54,362.87,Single-ply,SBD,M,
Boys,89.81,6,Kyler Estrada,Bay City,87.59,122.47,74.84,120.2,317.51,Single-ply,SBD,M,
Boys,89.81,DQ,Josh Gomez,Louise,82.24,140.61,81.65,,,Single-ply,SBD,M,
Boys,89.81,DQ,Dalton Bohannon,Edna,86.82,,,,,Single-ply,SBD,M,
Boys,89.81,DQ,Jericho Cardenas,Wharton,83.01,,,,,Single-ply,SBD,M,
Boys,89.81,DQ,Martin Estudillo,Palacios,89.81,,,,,Single-ply,SBD,M,
Boys,89.81,DQ,Ramon Delgado,Wharton,89.81,,,,,Single-ply,SBD,M,
Boys,89.81,DQ,Gabriel Roemer,Palacios,85.18,151.95,74.84,,,Single-ply,SBD,M,
Boys,99.79,1,Fernando Cortes,Edna,94.12,231.33,124.74,222.26,578.33,Single-ply,SBD,M,
Boys,99.79,2,Hunter Saavedra,El Maton Tidehaven,97.79,233.6,142.88,201.85,578.33,Single-ply,SBD,M,
Boys,99.79,3,Glenn Ihde,Bay City,90.4,179.17,99.79,195.04,474,Single-ply,SBD,M,
Boys,99.79,4,Logan MacLennan,Bay City,98.7,174.63,104.33,181.44,460.4,Single-ply,SBD,M,
Boys,99.79,5,Dominic Williams,Wharton,93.85,124.74,79.38,92.99,297.1,Single-ply,SBD,M,
Boys,99.79,DQ,Tanner Lev,Palacios,96.3,185.97,,,,Single-ply,SBD,M,
Boys,99.79,DQ,Dylan Vu,Palacios,91.58,,,,,Single-ply,SBD,M,
Boys,99.79,DQ,Dreydan Ashford,Edna,95.48,,,,,Single-ply,SBD,M,
Boys,99.79,DQ,Kyrean Albright,Louise,94.66,,,,,Single-ply,SBD,M,
Boys,99.79,DQ,Ethan Resendez,Louise,99.79,,,,,Single-ply,SBD,M,
Boys,99.79,DQ,Preston Sanchez,Wharton,99.79,,,,,Single-ply,SBD,M,
Boys,109.77,1,Daniel Gaona III,Louise,102.74,238.14,142.88,219.99,601.01,Single-ply,SBD,M,
Boys,109.77,2,Peyton Gonzales,Edna,108,244.94,120.2,204.12,569.26,Single-ply,SBD,M,
Boys,109.77,3,Jamie Ramos,Wharton,106.19,142.88,92.99,136.08,371.95,Single-ply,SBD,M,
Boys,109.77,DQ,David Wingo,Wharton,109.77,,,,,Single-ply,SBD,M,
Boys,109.77,DQ,Devin Johnson,Edna,106.87,,,,,Single-ply,SBD,M,
Boys,124.74,1,Isaac Allen,Bay City,120.16,217.72,129.27,183.7,530.7,Single-ply,SBD,M,
Boys,124.74,2,Eric Garza,Edna,124.74,213.19,136.08,174.63,523.9,Single-ply,SBD,M,
Boys,124.74,3,Blake Frausto,Bay City,124.19,176.9,83.91,192.78,453.59,Single-ply,SBD,M,
Boys,124.74,4,Marco Mata,Bay City,119.25,181.44,102.06,156.49,439.98,Single-ply,SBD,M,
Boys,124.74,5,Andres Bermudez,Bay City,110.27,176.9,106.59,151.95,435.45,Single-ply,SBD,M,
Boys,124.74,6,Augustin Muniz,Wharton,112.26,147.42,104.33,142.88,394.63,Single-ply,SBD,M,
Boys,124.74,DQ,Christopher Vasquez,Louise,122.83,256.28,115.67,,,Single-ply,SBD,M,
Boys,139.71,1,Juan Garcia,Bay City,128.73,83.91,52.16,113.4,249.48,Single-ply,SBD,M,
Boys,139.71,DQ,Dailynn Hernandez,Bay City,139.71,,,,,Single-ply,SBD,M,
Boys,139.71,DQ,Andre Brady,Edna,126.55,,,,,Single-ply,SBD,M,
Boys,139.71+,1,Pablo Almeda,Edna,141.38,240.4,122.47,190.51,553.38,Single-ply,SBD,M,
Boys,139.71+,DQ,Keegan Carillio,El Maton Tidehaven,142.25,238.14,167.83,,,Single-ply,SBD,M,
