Name,CyrillicName,Division,BirthDate,BodyweightKg,WeightClassKg,Sex,Bench1Kg,Bench2Kg,Bench3Kg,Best3BenchKg,Deadlift1Kg,Deadlift2Kg,Deadlift3Kg,Best3DeadliftKg,TotalKg,Event,Equipment,Place
Egana Sayalova,Егана Саялова,Pro Open,1982-11-30,54,56,F,45,-47,-47,45,,,,,45,B,Raw,1
Svetlana Markosyan,Светлана Маркосян,Pro Open,1976-06-04,59.9,60,F,62.5,70,-75,70,,,,,70,B,Raw,1
Regina Vorobeva,Регина Воробьева,Pro Open,1980-07-30,72,75,F,105,-110,-110,105,,,,,105,B,Raw,1
Anton Sich,Антон Сич,Pro Teen 18-19,1994-08-28,49.6,52,M,50,60,-70,60,,,,,60,B,Raw,1
Vladimir Tonkoglaz,Владимир Тонкоглаз,Pro Teen 16-17,1996-01-22,67.4,67.5,M,-125,125,127.5,127.5,,,,,127.5,B,Raw,1
Dmitriy Ogrin,Дмитрий Огрин,Pro Teen 16-17,1996-09-29,63.7,67.5,M,85,90,-95,90,,,,,90,B,Raw,2
Grach Arutyunyan,Грач Арутюнян,Pro Teen 18-19,1994-10-02,66.7,67.5,M,-105,-105,-105,,,,,,,B,Raw,DQ
Sergey Fedorenko,Сергей Федоренко,Pro Juniors 20-23,1990-02-22,66.5,67.5,M,105,-115,-117.5,105,,,,,105,B,Raw,1
Aleksandr Konev,Александр Конев,Pro Teen 13-15,1998-01-15,70.5,75,M,100,105,110,110,,,,,110,B,Raw,1
Nikolay Konev,Николай Конев,Pro Teen 18-19,1995-05-04,72.2,75,M,140,145,-147,145,,,,,145,B,Raw,1
Stanislav Potapkin,Станислав Потапкин,Pro Teen 18-19,1993-10-06,72.7,75,M,120,130,140,140,,,,,140,B,Raw,2
Aleksandr Nazarov,Александр Назаров,Pro Teen 18-19,1994-02-07,69.6,75,M,100,110,-115,110,,,,,110,B,Raw,3
Andrey Chernov,Андрей Чернов,Pro Juniors 20-23,1989-07-21,73.5,75,M,110,-120,,110,,,,,110,B,Raw,1
Vladimir Zhadenov,Владимир Жаденов,Pro Open,1987-06-01,68.4,75,M,130,140,-145,140,,,,,140,B,Raw,1
Pavel Duyunov,Павел Дуюнов,Pro Open,1981-01-22,74.1,75,M,125,132.5,-140,132.5,,,,,132.5,B,Raw,2
Yura Shchepetkov,Юра Щепетков,Pro Open,1985-02-17,74.8,75,M,117.5,-120,120,120,,,,,120,B,Raw,3
Danil Kotenko,Данил Котенко,Pro Teen 16-17,1996-07-17,78.9,82.5,M,85,90,100,100,,,,,100,B,Raw,1
Rustam Valitov,Рустам Валитов,Pro Juniors 20-23,1991-01-07,77.7,82.5,M,110,120,-125,120,,,,,120,B,Raw,1
Pavel Zabaznov,Павел Забазнов,Pro Open,1987-02-18,79.3,82.5,M,152.5,160,165,165,,,,,165,B,Raw,1
Dmitriy Varakin,Дмитрий Варакин,Pro Open,1989-02-27,79.1,82.5,M,140,150,-155,150,,,,,150,B,Raw,2
Maksim Chernov,Максим Чернов,Pro Open,1983-11-28,79.6,82.5,M,137.5,-147.5,147.5,147.5,,,,,147.5,B,Raw,3
Sergey Shchedrikov,Сергей Щедриков,Pro Open,1988-03-02,79.1,82.5,M,110,-115,115,115,,,,,115,B,Raw,7
Aleksey Yatsenko,Алексей Яценко,Pro Open,1980-10-29,80.4,82.5,M,132.5,-135,-135,132.5,,,,,132.5,B,Raw,4
Dmitriy Grishchenko,Дмитрий Грищенко,Pro Open,1989-05-28,80,82.5,M,130,-135,-135,130,,,,,130,B,Raw,5
Aleksey Evseev,Алексей Евсеев,Pro Open,1983-06-20,81.1,82.5,M,125,-135,-140,125,,,,,125,B,Raw,6
Ruslan Lupyr,Руслан Лупырь,Pro Masters 40-44,1972-06-14,80.7,82.5,M,120,130,-140,130,,,,,130,B,Raw,1
Igor Kudiev,Игорь Кудиев,Pro Teen 18-19,1994-09-27,86.6,90,M,120,125,-132.5,125,,,,,125,B,Raw,1
Artyom Mamontov,Артём Мамонтов,Pro Juniors 20-23,1991-01-14,89.6,90,M,-160,160,162.5,162.5,,,,,162.5,B,Raw,1
Kiril Konnov,Кирил Коннов,Pro Juniors 20-23,1991-03-03,86.7,90,M,140,-142,-142,140,,,,,140,B,Raw,2
Maksim Orlov,Максим Орлов,Pro Open,1981-12-21,86,90,M,155,160,165,165,,,,,165,B,Raw,1
Evgeniy Timanteev,Евгений Тимантеев,Pro Open,1983-01-09,86.4,90,M,150,157.5,-162.5,157.5,,,,,157.5,B,Raw,2
Vadim Galiullin,Вадим Галиуллин,Pro Open,1986-09-15,89.5,90,M,140,147.5,-157,147.5,,,,,147.5,B,Raw,3
Aleksandr Provotorov,Александр Провоторов,Pro Open,1979-04-10,87.2,90,M,120,130,-140,130,,,,,130,B,Raw,4
Nikolay Reshetov,Николай Решетов,Pro Masters 50-54,1959-02-23,87.5,90,M,-135,140,-147,140,,,,,140,B,Raw,1
Vadim Yashin,Вадим Яшин,Pro Masters 40-44,1969-04-22,88.5,90,M,-140,-150,155,155,,,,,155,B,Raw,1
Evgeniy Kurnosov,Евгений Курносов,Pro Juniors 20-23,1991-03-28,96.8,100,M,150,-165,165,165,,,,,165,B,Raw,1
Evgeniy Nikolaev,Евгений Николаев,Pro Open,1985-02-09,93.1,100,M,170,180,-190,180,,,,,180,B,Raw,1
Maksim Sleptsov,Максим Слепцов,Pro Open,1977-06-18,92,100,M,165,170,-175,170,,,,,170,B,Raw,2
Evgeniy Kuznetsov,Евгений Кузнецов,Pro Open,1984-07-04,96.6,100,M,145,155,160,160,,,,,160,B,Raw,3
Aleksey Popov #13,Алексей Попов,Pro Open,1981-08-13,97.3,100,M,-125,-125,-125,,,,,,,B,Raw,DQ
Vladimir Kornev,Владимир Корнев,Pro Masters 45-49,1967-04-27,99.1,100,M,115,125,135,135,,,,,135,B,Raw,1
Evgeniy Abrosimov,Евгений Абросимов,Pro Masters 45-49,1966-09-29,99.5,100,M,-140,-140,-140,,,,,,,B,Raw,DQ
Aleksey Prinyov,Алексей Принёв,Pro Masters 40-44,1968-12-29,95.9,100,M,-130,135,140,140,,,,,140,B,Raw,1
Aleksey Savkin,Алексей Савкин,Pro Juniors 20-23,1990-04-05,104,110,M,-162.5,167.5,172.5,172.5,,,,,172.5,B,Raw,1
Aleksandr Kadzaev,Александр Кадзаев,Pro Juniors 20-23,1990-09-03,107.5,110,M,165,170,-175,170,,,,,170,B,Raw,2
Vasiliy Bednov,Василий Беднов,Pro Masters 40-44,1970-05-18,109,110,M,-190,195,205,205,,,,,205,B,Raw,1
Igor Lisitskiy,Игорь Лисицкий,Pro Masters 40-44,,107.4,110,M,-150,155,160,160,,,,,160,B,Raw,2
Aleksandr Dolgov,Александр Долгов,Pro Open,1974-03-21,108.5,110,M,180,200,210,210,,,,,210,B,Raw,1
Dmitriy Novokshchenov,Дмитрий Новокщенов,Pro Open,1981-05-07,102.7,110,M,160,-170,-170,160,,,,,160,B,Raw,2
Andrey Salatanov,Андрей Салатанов,Pro Open,1982-05-29,106.5,110,M,-150,150,-160,150,,,,,150,B,Raw,3
Sergey Smirnov,Сергей Смирнов,Pro Open,1982-09-16,109.5,110,M,130,140,-150,140,,,,,140,B,Raw,4
Andrey Kvochkin,Андрей Квочкин,Pro Juniors 20-23,1991-03-21,120.5,125,M,180,200,210,210,,,,,210,B,Raw,1
Aleksandr Malofeev,Александр Малофеев,Pro Open,1981-06-06,120.2,125,M,155,165,-175,165,,,,,165,B,Raw,1
Anton Bespoludin,Антон Бесполудин,Pro Open,1976-12-27,115.3,125,M,150,160,-175,160,,,,,160,B,Raw,2
Adam Kotiev,Адам Котиев,Pro Masters 40-44,1971-07-01,111.5,125,M,170,180,190,190,,,,,190,B,Raw,1
Egana Sayalova,Егана Саялова,Pro Open,1982-11-30,54,56,F,,,,,80,90,100,100,100,D,Raw,1
Elena Lushchaeva,Елена Лущаева,Pro Juniors 20-23,1991-02-28,55.8,56,F,,,,,85,92.5,-95,92.5,92.5,D,Raw,1
Ekaterina Vasileva,Екатерина Васильева,Pro Juniors 20-23,1992-06-03,57.9,60,F,,,,,90,100,-110,100,100,D,Raw,1
Marina Vishnevskaya,Марина Вишневская,Pro Open,1985-10-26,66.1,67.5,F,,,,,150,160,165,165,165,D,Raw,1
Anton Sich,Антон Сич,Pro Teen 18-19,1994-08-28,49.6,52,M,,,,,90,105,115,115,115,D,Raw,1
Maksim Ushakov,Максим Ушаков,Pro Teen 16-17,1995-08-14,57.9,60,M,,,,,120,135,150,150,150,D,Raw,1
Dmitriy Ogrin,Дмитрий Огрин,Pro Teen 16-17,1996-09-29,63.7,67.5,M,,,,,,145,160,160,160,D,Raw,1
Aleksandr Nazarov,Александр Назаров,Pro Teen 18-19,1994-02-07,69.6,75,M,,,,,140,155,-165,155,155,D,Raw,1
Aleksey Kolchenko,Алексей Кольченко,Pro Juniors 20-23,1990-03-29,70.5,75,M,,,,,150,160,-170,160,160,D,Raw,1
Danil Kotenko,Данил Котенко,Pro Teen 16-17,1996-07-17,78.9,82.5,M,,,,,135,150,-160,150,150,D,Raw,1
Sergey Afanasev,Сергей Афанасьев,Pro Juniors 20-23,1990-05-02,79.3,82.5,M,,,,,200,220,227.5,227.5,227.5,D,Raw,1
Viktor Zozulin,Виктор Зозулин,Pro Open,1984-12-24,77.9,82.5,M,,,,,200,220,-230,220,220,D,Raw,1
Vadim Kamyshnikov,Вадим Камышников,Pro Juniors 20-23,1989-08-14,86.6,90,M,,,,,150,160,170,170,170,D,Raw,1
Aleksandr Shchepetnov,Александр Щепетнов,Pro Open,1978-04-08,88.9,90,M,,,,,230,240,245,245,245,D,Raw,1
Aleksandr Provotorov,Александр Провоторов,Pro Open,1979-04-10,87.2,90,M,,,,,220,230,-240,230,230,D,Raw,2
Valeriy Polosminnikov,Валерий Полосминников,Pro Open,1975-08-12,89.5,90,M,,,,,180,192.5,-195,192.5,192.5,D,Raw,3
Denis Chekalov,Денис Чекалов,Pro Open,1987-10-28,87,90,M,,,,,150,160,175,175,175,D,Raw,6
Semen Vachugov,Семен Вачугов,Pro Open,1987-09-29,85.05,90,M,,,,,170,180,190,190,190,D,Raw,5
Aleksandr Kozhevnikov,Александр Кожевников,Pro Open,1987-04-11,84.8,90,M,,,,,150,175,190,190,190,D,Raw,4
Evgeniy Fedorin,Евгений Федорин,Pro Teen 18-19,1994-07-13,97.6,100,M,,,,,200,210,-232.5,210,210,D,Raw,1
Evgeniy Kurnosov,Евгений Курносов,Pro Juniors 20-23,1991-03-28,96.8,100,M,,,,,-285,285,-295,285,285,D,Raw,1
Evgeniy Nikolaev,Евгений Николаев,Pro Open,1985-02-09,93.1,100,M,,,,,280,300,-305,300,300,D,Raw,1
Maksim Sleptsov,Максим Слепцов,Pro Open,1977-06-18,92,100,M,,,,,245,255,-265,255,255,D,Raw,2
Evgeniy Kuznetsov,Евгений Кузнецов,Pro Open,1984-07-04,96.6,100,M,,,,,225,240,-257.5,240,240,D,Raw,3
Vladimir Kornev,Владимир Корнев,Pro Masters 45-49,1967-04-27,99.1,100,M,,,,,190,200,-210,200,200,D,Raw,1
Aleksandr Kadzaev,Александр Кадзаев,Pro Juniors 20-23,1990-09-03,107.5,110,M,,,,,-290,-290,310,310,310,D,Raw,1
Petr Zaporozhtsev,Петр Запорожцев,Pro Open,1973-10-25,108.5,110,M,,,,,180,200,215,215,215,D,Raw,1
Andrey Kvochkin,Андрей Квочкин,Pro Juniors 20-23,1991-03-21,120.5,125,M,,,,,300,320,-335,320,320,D,Raw,1
Aleksandr Malofeev,Александр Малофеев,Pro Open,1981-06-06,120.2,125,M,,,,,220,240,250,250,250,D,Raw,1
Anton Bespoludin,Антон Бесполудин,Pro Open,1976-12-27,120,125,M,,,,,220,-230,-230,220,220,D,Raw,2
Adam Kotiev,Адам Котиев,Pro Masters 40-44,1971-07-01,111.5,125,M,,,,,280,-305,,280,280,D,Raw,1
Grach Arutyunyan,Грач Арутюнян,Pro Teen 18-19,1994-10-02,66.7,67.5,M,90,110,-147,110,,,,,110,B,Multi-ply,1
Dmitriy Yakovlev,Дмитрий Яковлев,Pro Teen 18-19,1993-12-24,72.1,75,M,120,130,140,140,,,,,140,B,Multi-ply,1
Dmitriy Grishchenko,Дмитрий Грищенко,Pro Open,1989-05-28,80.01,82.5,M,155,165,-170,165,,,,,165,B,Multi-ply,1
Aleksandr Konstantinov,Александр Константинов,Pro Open,1988-09-11,89.6,90,M,220,260,270,270,,,,,270,B,Multi-ply,1
Nikolay Reshetov,Николай Решетов,Pro Masters 50-54,1959-02-23,87.5,90,M,-175,-175,-175,,,,,,,B,Multi-ply,DQ
Vadim Evtushenko,Вадим Евтушенко,Pro Open,1974-09-18,109.5,110,M,220,230,250,250,,,,,250,B,Multi-ply,1
Sergey Kakichev,Сергей Какичев,Pro Open,1980-12-11,109.2,110,M,210,-225,230,230,,,,,230,B,Multi-ply,2
Vasiliy Shpodarev,Василий Шподарев,Pro Open,1989-01-13,121.1,125,M,240,260,,260,,,,,260,B,Multi-ply,1
Aleksey Tarasov,Алексей Тарасов,Pro Open,1976-03-21,121.8,125,M,240,255,-265,255,,,,,255,B,Multi-ply,2
Sergey Dzhurilov,Сергей Джурилов,Pro Open,1976-11-30,115,125,M,-250,250,-270,250,,,,,250,B,Multi-ply,3
Sergey Golyush,Сергей Голюш,Pro Open,1972-09-01,128.9,140,M,240,255,270,270,,,,,270,B,Multi-ply,1
Pavel Duyunov,Павел Дуюнов,Pro Open,1981-10-22,74.1,75,M,,,,,225,240,-250,240,240,D,Multi-ply,1
Vasiliy Shpodarev,Василий Шподарев,Pro Open,1989-01-13,121.1,125,M,,,,,250,270,-300,270,270,D,Multi-ply,1
