Division,WeightClassKg,Place,Name,Team,BodyweightKg,Best3SquatKg,Best3BenchKg,Best3DeadliftKg,TotalKg,Equipment,Event,Sex
Boys,51.71,1,Tristan Pierce,Belton,51.07,95.25,52.16,99.79,247.21,Single-ply,SBD,M
Boys,51.71,2,Gauge Nelson,Copperas Cove,50.53,90.72,49.9,102.06,242.67,Single-ply,SBD,M
Boys,51.71,3,Caleb Dawkins,Waco,49.62,90.72,47.63,95.25,233.6,Single-ply,SBD,M
Boys,51.71,4,Jim Langerman,Waco Midway,48.99,56.7,40.82,79.38,176.9,Single-ply,SBD,M
Boys,51.71,5,Charles Neal,Copperas Cove,37.1,56.7,38.56,56.7,151.95,Single-ply,SBD,M
Boys,55.79,1,Juan Sanchez #4,Waco,55.61,142.88,90.72,172.37,405.97,Single-ply,SBD,M
Boys,55.79,2,Max Castelli,Belton,55.16,127.01,72.57,140.61,340.19,Single-ply,SBD,M
Boys,55.79,3,Faison Stroup,Waco University,54.88,129.27,70.31,120.2,319.78,Single-ply,SBD,M
Boys,55.79,4,Jose Marquez,Waco,55.79,127.01,65.77,120.2,312.98,Single-ply,SBD,M
Boys,55.79,5,Kyle Gascon,Belton,55.61,133.81,56.7,117.93,308.44,Single-ply,SBD,M
Boys,55.79,6,Aquarius McPaul,Waco University,53.98,108.86,68.04,117.93,294.84,Single-ply,SBD,M
Boys,55.79,7,Levi Smith,Waco Midway,55.34,68.04,58.97,113.4,240.4,Single-ply,SBD,M
Boys,55.79,8,Quenton Combs,Copperas Cove,52.62,86.18,,88.45,174.63,Single-ply,SD,M
Boys,59.87,1,Brent Wheeler,Belton,58.69,154.22,81.65,147.42,383.29,Single-ply,SBD,M
Boys,59.87,2,Jaylen Montgomery,Waco Midway,59.42,136.08,79.38,149.69,365.14,Single-ply,SBD,M
Boys,59.87,3,Avery Rodriguez #3,Temple,55.97,113.4,92.99,147.42,353.8,Single-ply,SBD,M
Boys,59.87,4,Nathan Hunt,Belton,57.79,99.79,63.5,124.74,288.03,Single-ply,SBD,M
Boys,67.13,1,Christian Castillo,Belton,66.13,176.9,97.52,172.37,446.79,Single-ply,SBD,M
Boys,67.13,2,Patrick Frazho,Belton,65.05,165.56,92.99,172.37,430.91,Single-ply,SBD,M
Boys,67.13,3,Cameron Parker,Belton,66.41,163.29,99.79,158.76,421.84,Single-ply,SBD,M
Boys,67.13,4,Gerald Fountain,Belton,65.14,113.4,70.31,147.42,331.12,Single-ply,SBD,M
Boys,67.13,5,Kevon Britt,Waco University,63.5,111.13,61.23,127.01,299.37,Single-ply,SBD,M
Boys,67.13,6,Jaden Sanders,Waco University,62.14,104.33,72.57,120.2,297.1,Single-ply,SBD,M
Boys,67.13,7,Samuel Odedeji,Waco Midway,66.81,97.52,72.57,111.13,281.23,Single-ply,SBD,M
Boys,74.84,1,Kyleland Sauls,Temple,73.39,192.78,138.35,192.78,523.9,Single-ply,SBD,M
Boys,74.84,2,Tyheme Isabel,Waco,74.39,199.58,120.2,201.85,521.63,Single-ply,SBD,M
Boys,74.84,3,Craig Dawson,Waco Midway,74.66,199.58,124.74,197.31,521.63,Single-ply,SBD,M
Boys,74.84,4,Dwight Roberts,Temple,68.13,170.1,127.01,204.12,501.22,Single-ply,SBD,M
Boys,74.84,5,Devyn Raper,Belton,73.3,163.29,115.67,181.44,460.4,Single-ply,SBD,M
Boys,74.84,6,Samuel Garcia,Belton,71.67,136.08,113.4,170.1,419.57,Single-ply,SBD,M
Boys,74.84,7,Keith Guillory,Waco,68.31,142.88,88.45,167.83,399.16,Single-ply,SBD,M
Boys,74.84,8,Dante Frederick,Copperas Cove,68.04,145.15,92.99,158.76,396.89,Single-ply,SBD,M
Boys,74.84,9,Sebastion Evans,Waco University,72.21,133.81,97.52,151.95,383.29,Single-ply,SBD,M
Boys,74.84,10,Seth Vela,Waco Midway,74.39,129.27,90.72,161.03,381.02,Single-ply,SBD,M
Boys,74.84,11,Kyle Telg,Waco Midway,71.21,117.93,72.57,142.88,333.39,Single-ply,SBD,M
Boys,74.84,12,Sam Barron,Waco,71.21,124.74,70.31,136.08,331.12,Single-ply,SBD,M
Boys,82.1,1,Easton Simpson,Copperas Cove,77.75,185.97,108.86,170.1,464.93,Single-ply,SBD,M
Boys,82.1,2,Darrell Quichacho,Copperas Cove,81.65,179.17,99.79,185.97,464.93,Single-ply,SBD,M
Boys,82.1,3,Jacob Carney,Copperas Cove,80.65,158.76,97.52,181.44,437.72,Single-ply,SBD,M
Boys,82.1,4,Keaton Kaulfus,Belton,81.19,156.49,102.06,145.15,403.7,Single-ply,SBD,M
Boys,82.1,5,Reggie Johnson,Waco,78.11,136.08,95.25,167.83,399.16,Single-ply,SBD,M
Boys,82.1,6,Tytan Gosset,Copperas Cove,82.1,136.08,97.52,149.69,383.29,Single-ply,SBD,M
Boys,82.1,7,Patrick Tucker,Waco,79.74,120.2,83.91,161.03,365.14,Single-ply,SBD,M
Boys,82.1,8,Timm DeLeon,Waco,76.93,111.13,61.23,142.88,315.25,Single-ply,SBD,M
Boys,82.1,9,Brandon Ives,Copperas Cove,75.75,124.74,,165.56,290.3,Single-ply,SD,M
Boys,89.81,1,James Fullbright,Waco Midway,84.37,190.51,113.4,199.58,503.49,Single-ply,SBD,M
Boys,89.81,2,Davion Minnitt,Waco,89.54,181.44,111.13,192.78,485.34,Single-ply,SBD,M
Boys,89.81,3,Dai'Shawn Fisher,Waco,85.09,181.44,102.06,199.58,483.08,Single-ply,SBD,M
Boys,89.81,4,Alastair Robinson,Waco University,87.54,170.1,113.4,172.37,455.86,Single-ply,SBD,M
Boys,89.81,5,Kobe Bankston,Temple,86.27,158.76,106.59,170.1,435.45,Single-ply,SBD,M
Boys,89.81,6,Randy Schoolcraft,Belton,87.72,163.29,95.25,147.42,405.97,Single-ply,SBD,M
Boys,89.81,7,Nate David,Copperas Cove,89.09,145.15,79.38,161.03,385.55,Single-ply,SBD,M
Boys,89.81,8,Malik Jackson,Belton,84.73,138.35,81.65,136.08,356.07,Single-ply,SBD,M
Boys,89.81,9,Declan McCabe,Waco Midway,83.91,117.93,72.57,124.74,315.25,Single-ply,SBD,M
Boys,89.81,10,Caleb Koen,Waco Midway,84.37,111.13,74.84,124.74,310.71,Single-ply,SBD,M
Boys,89.81,DQ,Grayson McClendon,Waco Midway,88,115.67,,,,Single-ply,SBD,M
Boys,89.81,DQ,Mark Gastelo,Copperas Cove,88.36,158.76,,,,Single-ply,SBD,M
Boys,99.79,1,Zachary Hoyle,Copperas Cove,96.89,210.92,120.2,204.12,535.24,Single-ply,SBD,M
Boys,99.79,2,Devin Martinez,Belton,95.8,199.58,124.74,199.58,523.9,Single-ply,SBD,M
Boys,99.79,3,Jawaun Howard,Belton,96.52,185.97,142.88,185.97,514.83,Single-ply,SBD,M
Boys,99.79,4,Devon Taplin,Belton,95.53,195.04,124.74,190.51,510.29,Single-ply,SBD,M
Boys,99.79,5,Elijah Muhammad,Waco University,92.62,158.76,115.67,197.31,471.74,Single-ply,SBD,M
Boys,99.79,6,D'Ashton Merida,Temple,99.06,183.7,115.67,167.83,467.2,Single-ply,SBD,M
Boys,99.79,7,Chris Hooper,Temple,90.72,172.37,106.59,181.44,460.4,Single-ply,SBD,M
Boys,99.79,8,Garrett Orange,Belton,96.16,172.37,106.59,181.44,460.4,Single-ply,SBD,M
Boys,99.79,9,Zephanie Johnson,Waco University,94.53,163.29,99.79,192.78,455.86,Single-ply,SBD,M
Boys,99.79,10,Xavier White,Temple,93.53,161.03,102.06,170.1,433.18,Single-ply,SBD,M
Boys,99.79,11,Daniel Ford,Waco Midway,93.44,154.22,97.52,165.56,417.3,Single-ply,SBD,M
Boys,99.79,12,Christian Eseroma,Copperas Cove,99.79,147.42,90.72,161.03,399.16,Single-ply,SBD,M
Boys,99.79,13,Henry Lamm,Waco Midway,98.88,136.08,79.38,149.69,365.14,Single-ply,SBD,M
Boys,99.79,DQ,Deric Rocha,Copperas Cove,92.71,204.12,,,,Single-ply,SBD,M
Boys,109.77,1,Arturo Jaimes,Belton,106.05,254.01,142.88,272.16,669.05,Single-ply,SBD,M
Boys,109.77,2,Cory Ebron,Waco,109.32,254.01,124.74,224.53,603.28,Single-ply,SBD,M
Boys,109.77,3,Daniel Castro,Waco Midway,109.32,181.44,106.59,192.78,480.81,Single-ply,SBD,M
Boys,109.77,4,Kendrick Johnson,Temple,101.33,181.44,127.01,158.76,467.2,Single-ply,SBD,M
Boys,109.77,5,Winston Vasquez,Copperas Cove,106.41,176.9,92.99,165.56,435.45,Single-ply,SBD,M
Boys,109.77,6,Isiah Fach,Temple,106.78,158.76,92.99,140.61,392.36,Single-ply,SBD,M
Boys,109.77,7,Louis Alvarado,Waco University,105.69,129.27,92.99,167.83,390.09,Single-ply,SBD,M
Boys,109.77,8,Jayven Taylor,Temple,108.14,158.76,88.45,142.88,390.09,Single-ply,SBD,M
Boys,109.77,9,Quincy White,Waco,107.68,131.54,79.38,158.76,369.68,Single-ply,SBD,M
Boys,109.77,10,Willie Carter,Waco,104.69,106.59,86.18,145.15,337.93,Single-ply,SBD,M
Boys,109.77,11,Sammy Rodriguez,Temple,108.05,219.99,,,219.99,Single-ply,S,M
Boys,109.77,DQ,Keyshawn Dudley,Waco,106.14,,,,,Single-ply,S,M
Boys,109.77,DQ,Terry Murphy,Waco University,105.23,215.46,136.08,,,Single-ply,SBD,M
Boys,124.74,1,Sidney Sherwood,Belton,123.56,233.6,158.76,190.51,582.87,Single-ply,SBD,M
Boys,124.74,2,Russell Hogue,Temple,113.4,215.46,133.81,204.12,553.38,Single-ply,SBD,M
Boys,124.74,3,Ezekiel Buchanan,Copperas Cove,121.2,208.65,120.2,204.12,532.97,Single-ply,SBD,M
Boys,124.74,4,Tj Franklin,Temple,123.38,181.44,138.35,204.12,523.9,Single-ply,SBD,M
Boys,124.74,5,Noah Castillo,Temple,113.94,170.1,131.54,161.03,462.66,Single-ply,SBD,M
Boys,124.74,6,Germon Newton,Waco,116.39,156.49,113.4,181.44,451.32,Single-ply,SBD,M
Boys,124.74,7,Markel Carter,Temple,124.74,170.1,113.4,158.76,442.25,Single-ply,SBD,M
Boys,124.74,8,John Montemayor,Waco Midway,117.48,156.49,111.13,158.76,426.38,Single-ply,SBD,M
Boys,124.74,9,Daniel Phillips,Waco Midway,118.84,145.15,106.59,174.63,426.38,Single-ply,SBD,M
Boys,124.74,10,John Gorrell,Waco Midway,113.4,158.76,117.93,147.42,424.11,Single-ply,SBD,M
Boys,124.74,11,Jorge Ramirez,Waco,111.04,170.1,90.72,154.22,415.04,Single-ply,SBD,M
Boys,124.74,12,Jaylian Milton,Waco,121.47,131.54,95.25,170.1,396.89,Single-ply,SBD,M
Boys,124.74,13,DelRay Judd,Copperas Cove,116.12,142.88,97.52,151.95,392.36,Single-ply,SBD,M
Boys,124.74,14,Thomas Barnhill,Waco Midway,112.04,136.08,68.04,136.08,340.19,Single-ply,SBD,M
Boys,124.74+,1,Vincent Nakeveyon,Waco,167.28,319.78,192.78,249.48,762.04,Single-ply,SBD,M
Boys,124.74+,2,Phillip Haskins,Temple,132.54,260.82,142.88,251.74,655.44,Single-ply,SBD,M
Boys,124.74+,3,Daizion Carroll,Waco Midway,138.35,281.23,142.88,231.33,655.44,Single-ply,SBD,M
Boys,124.74+,4,Khalil Glasker,Waco,140.07,240.4,136.08,219.99,596.47,Single-ply,SBD,M
Boys,124.74+,5,Jordan Sharp,Waco Midway,168.74,260.82,136.08,190.51,587.4,Single-ply,SBD,M
Boys,124.74+,6,Aaron Shanahan,Copperas Cove,140.43,226.8,120.2,219.99,566.99,Single-ply,SBD,M
Boys,124.74+,7,Tre Colbert,Temple,132.27,174.63,138.35,192.78,505.76,Single-ply,SBD,M
Boys,124.74+,8,Joshua Echeveria,Waco Midway,132.9,181.44,102.06,185.97,469.47,Single-ply,SBD,M
Boys,124.74+,9,Dale Wright,Copperas Cove,130.18,181.44,97.52,174.63,453.59,Single-ply,SBD,M
Boys,124.74+,10,Dakari White,Temple,130.36,165.56,113.4,151.95,430.91,Single-ply,SBD,M
Boys,124.74+,11,Jordan Becerra,Waco,134.26,158.76,83.91,167.83,410.5,Single-ply,SBD,M
Boys,124.74+,12,Miguel Covento,Waco Midway,139.25,133.81,86.18,140.61,360.61,Single-ply,SBD,M
Boys,124.74+,13,Robert Ursua,Waco Midway,134.26,136.08,70.31,142.88,349.27,Single-ply,SBD,M
Boys,124.74+,DQ,Vincent Sampson,Waco Midway,136.08,,,,,Single-ply,SBD,M
Boys,124.74+,DQ,Chris Brown,Belton,173.36,154.22,,,,Single-ply,SBD,M
Boys,,NS,Miguel Pérez #5,Waco,,,,,,Single-ply,SBD,M
