Division,WeightClassKg,Place,Name,Team,BodyweightKg,Best3SquatKg,Best3BenchKg,Best3DeadliftKg,TotalKg,Equipment,Event,Sex
Boys,51.71,1,Kyle Sanchez,Boling,45.36,97.52,43.09,104.33,244.94,Single-ply,SBD,M
Boys,55.79,1,Rudy Becerra,Boling,54.52,145.15,81.65,136.08,362.87,Single-ply,SBD,M
Boys,59.87,1,Kevin Manning,Boling,59.69,217.72,111.13,181.44,510.29,Single-ply,SBD,M
Boys,59.87,2,Aryan Bhatka,Boling,59.33,163.29,81.65,170.1,415.04,Single-ply,SBD,M
Boys,59.87,3,Rider Reid,La Grange,59.6,115.67,77.11,151.95,344.73,Single-ply,SBD,M
Boys,59.87,4,Justin Acosta,Boling,59.87,115.67,70.31,129.27,315.25,Single-ply,SBD,M
Boys,67.13,1,Andres Castillo,Needville,63.78,154.22,92.99,165.56,412.77,Single-ply,SBD,M
Boys,67.13,2,Carlos Olmedo,Boling,65.05,158.76,88.45,149.69,396.89,Single-ply,SBD,M
Boys,67.13,3,Jared Johnson,La Grange,66.68,129.27,97.52,145.15,371.95,Single-ply,SBD,M
Boys,67.13,4,Juvenal Ramirez,Boling,64.77,122.47,77.11,120.2,319.78,Single-ply,SBD,M
Boys,67.13,5,Jordan Todd,Boling,61.78,92.99,77.11,124.74,294.84,Single-ply,SBD,M
Boys,74.84,1,Jacob Rhodes,Needville,70.94,201.85,111.13,206.38,519.36,Single-ply,SBD,M
Boys,74.84,2,Kyler Teykl,Needville,73.75,201.85,111.13,174.63,487.61,Single-ply,SBD,M
Boys,74.84,3,Ethan Castaneda,Needville,74.3,174.63,111.13,192.78,478.54,Single-ply,SBD,M
Boys,74.84,4,Rider Imhoff,La Grange,68.58,136.08,81.65,136.08,353.8,Single-ply,SBD,M
Boys,74.84,5,Reece Staley,Needville,67.77,106.59,45.36,113.4,265.35,Single-ply,SBD,M
Boys,74.84,DQ,Matthew Johnson #6,La Grange,69.08,,,,,Single-ply,SBD,M
Boys,74.84,DQ,Demeris Taylor,La Grange,73.48,,,,,Single-ply,SBD,M
Boys,82.1,1,Sebastian Barker,Needville,80.47,161.03,111.13,183.7,455.86,Single-ply,SBD,M
Boys,82.1,DQ,DJ Taylor,La Grange,81.28,,,,,Single-ply,SBD,M
Boys,82.1,DQ,Deviro Yanis,La Grange,76.84,,,,,Single-ply,SBD,M
Boys,82.1,DQ,Tanner Stacy,Needville,81.56,,,,,Single-ply,SBD,M
Boys,89.81,1,Ronald Hargrove,Needville,87.09,272.16,145.15,272.16,689.46,Single-ply,SBD,M
Boys,89.81,2,Kole Matula,Needville,88.72,215.46,140.61,215.46,571.53,Single-ply,SBD,M
Boys,99.79,1,Landon Henke,Needville,99.16,183.7,108.86,181.44,474,Single-ply,SBD,M
Boys,99.79,2,Juan Guevara,Needville,92.8,111.13,86.18,113.4,310.71,Single-ply,SBD,M
Boys,99.79,DQ,David Sanchez #5,La Grange,94.89,,,,,Single-ply,SBD,M
Boys,99.79,DQ,Jerry Richards,Boling,96.8,,,,,Single-ply,SBD,M
Boys,109.77,1,Ricardo Marquez,Needville,108.95,217.72,131.54,199.58,548.85,Single-ply,SBD,M
Boys,109.77,2,Chris Hein,Needville,109.23,195.04,115.67,199.58,510.29,Single-ply,SBD,M
Boys,109.77,3,Trent Reyes,Boling,101.33,215.46,113.4,174.63,503.49,Single-ply,SBD,M
Boys,109.77,4,Stephen Ashburn,Needville,108.59,183.7,127.01,161.03,471.74,Single-ply,SBD,M
Boys,109.77,5,Kodey Sulak,Boling,103.06,154.22,97.52,131.54,383.29,Single-ply,SBD,M
Boys,124.74,1,Branden Hackmer,Boling,118.75,158.76,102.06,142.88,403.7,Single-ply,SBD,M
Boys,124.74,DQ,Eddie Jones #2,Needville,110.31,142.88,92.99,,,Single-ply,SBD,M
Boys,124.74+,1,Blake Boenisch,Needville,133.36,215.46,129.27,226.8,571.53,Single-ply,SBD,M
Boys,124.74+,2,Tom Elliott,Boling,136.98,174.63,90.72,145.15,410.5,Single-ply,SBD,M
