Division,WeightClassKg,Place,Name,Team,BodyweightKg,Best3SquatKg,Best3BenchKg,Best3DeadliftKg,TotalKg,Equipment,Event,Sex,BirthDate
Boys,51.71,1,Jose Zamora,Dumas,51.62,104.33,65.77,122.47,292.57,Single-ply,SBD,M,
Boys,55.79,1,Brandon Smith,Dumas,54.16,136.08,88.45,124.74,349.27,Single-ply,SBD,M,
Boys,59.87,1,Emmanuel Ibanez,Dumas,59.78,161.03,90.72,165.56,417.3,Single-ply,SBD,M,
Boys,59.87,2,Jonathan Jaso,Dumas,59.87,172.37,77.11,156.49,405.97,Single-ply,SBD,M,
Boys,67.13,1,Christian Laja,Perryton,66.68,235.87,131.54,244.94,612.35,Single-ply,SBD,M,
Boys,67.13,2,Jose Chavira,Dumas,67.13,170.1,111.13,183.7,464.93,Single-ply,SBD,M,
Boys,67.13,3,Cullen Thronburg,Dumas,66.68,149.69,90.72,163.29,403.7,Single-ply,SBD,M,
Boys,67.13,4,Julian Cervantes,Perryton,66.68,158.76,97.52,147.42,403.7,Single-ply,SBD,M,
Boys,67.13,5,Zane Holland,Dumas,67.13,142.88,102.06,142.88,387.82,Single-ply,SBD,M,
Boys,67.13,6,Alex Jarrell,Perryton,67.13,108.86,81.65,151.95,342.46,Single-ply,SBD,M,
Boys,67.13,7,Freddy Zapien,Perryton,65.77,111.13,65.77,127.01,303.91,Single-ply,SBD,M,
Boys,74.84,1,Bradley Franks,Dumas,74.03,201.85,113.4,190.51,505.76,Single-ply,SBD,M,
Boys,74.84,2,Jonathan Espino,Perryton,73.94,197.31,97.52,172.37,467.2,Single-ply,SBD,M,
Boys,74.84,3,Izaiah Vasquez,Perryton,74.84,158.76,113.4,174.63,446.79,Single-ply,SBD,M,
Boys,74.84,4,Rodolfo Delgado,Perryton,74.84,165.56,108.86,151.95,426.38,Single-ply,SBD,M,
Boys,82.1,1,Jaden Rodriguez,Perryton,81.65,260.82,129.27,185.97,576.06,Single-ply,SBD,M,
Boys,82.1,2,Sabien Perry,Dumas,75.57,226.8,122.47,222.26,571.53,Single-ply,SBD,M,
Boys,82.1,3,Junior Torres,Perryton,81.37,238.14,115.67,208.65,562.45,Single-ply,SBD,M,
Boys,82.1,4,Stetson Garcia,Perryton,81.65,165.56,131.54,195.04,492.15,Single-ply,SBD,M,
Boys,82.1,5,Jj Salaz,Perryton,82.1,147.42,83.91,158.76,390.09,Single-ply,SBD,M,
Boys,89.81,1,Angel Quiroz,Dumas,89.18,249.48,147.42,219.99,616.89,Single-ply,SBD,M,
Boys,89.81,2,Ezequiel Fernandez Uguet,Borger,86.82,201.85,127.01,204.12,532.97,Single-ply,SBD,M,
Boys,89.81,3,Damion Murga,Dumas,85.73,197.31,136.08,181.44,514.83,Single-ply,SBD,M,
Boys,89.81,4,Alberto Sanchez,Dumas,89.36,183.7,92.99,195.04,471.74,Single-ply,SBD,M,
Boys,89.81,5,Mason Keenan,Dumas,86.27,147.42,113.4,142.88,403.7,Single-ply,SBD,M,
Boys,99.79,1,Dalton Leven,Dumas,96.71,208.65,131.54,204.12,544.31,Single-ply,SBD,M,
Boys,109.77,1,Alonso Tarango,Perryton,101.15,276.69,176.9,231.33,684.92,Single-ply,SBD,M,
Boys,109.77,2,Landen Lasley,Borger,102.97,156.49,104.33,149.69,410.5,Single-ply,SBD,M,
Boys,124.74,1,Dakota Pearson,Perryton,112.49,195.04,104.33,158.76,458.13,Single-ply,SBD,M,
Boys,139.71,1,Lucas Martinez,Dumas,133.27,249.48,161.03,231.33,641.83,Single-ply,SBD,M,
